import java.util.*;

  
public class Hello 
{
      
public static void main(String[] args) 
{
      
System.out.println("Hello, the current date is: ");

      Date data = new Date();

      System.out.println(data);

  }
}